^C:\USERS\MSTIG\SOURCE\REPOS\WINDOWSPROJECT2\WINDOWSPROJECT2\WINDOWSPROJECT2.CPP
C:\USERS\MSTIG\SOURCE\REPOS\WINDOWSPROJECT2\WINDOWSPROJECT2\X64\DEBUG\VC142.PDB
C:\USERS\MSTIG\SOURCE\REPOS\WINDOWSPROJECT2\WINDOWSPROJECT2\X64\DEBUG\VC142.IDB
C:\USERS\MSTIG\SOURCE\REPOS\WINDOWSPROJECT2\WINDOWSPROJECT2\X64\DEBUG\WINDOWSPROJECT2.OBJ
